{
  "project_info": {
    "project_number": "500654663520",
    "project_id": "io-notes-c66b2",
    "storage_bucket": "io-notes-c66b2.appspot.com"
  },
  "client": [
    {
      "client_info": {
        "mobilesdk_app_id": "1:500654663520:android:c0d7b0bba31cd6be586005",
        "android_client_info": {
          "package_name": "com.example.ionotes"
        }
      },
      "oauth_client": [],
      "api_key": [
        {
          "current_key": "AIzaSyASRdheAcxl58DdpiDKp2XDA9QVCiHZZrU"
        }
      ],
      "services": {
        "appinvite_service": {
          "other_platform_oauth_client": []
        }
      }
    }
  ],
  "configuration_version": "1"
}